#Clears the background to default
clear
reset

moveTo 0,400
fill off
pencolor #16697a
circle 310
circle 320
circle 330
circle 340
circle 350
circle 360
circle 370
circle 380
circle 390
circle 400
circle 410
circle 420
circle 430
circle 440
circle 450
circle 460
circle 470
circle 480
circle 490
circle 500
circle 510
circle 520
circle 530
circle 540
circle 550
circle 560
circle 570
circle 580
circle 590
circle 600
circle 610
circle 620
circle 630
circle 640
circle 650
circle 660
circle 670
circle 680
circle 690
circle 700
circle 710
circle 720
circle 730
circle 740
circle 750
circle 760




moveTo 740,0

fill off
pencolor #f05454
circle 310
circle 320
circle 330
circle 340
circle 350
circle 360
circle 370
circle 380
circle 390
circle 400
circle 410
circle 420
circle 430
circle 440
circle 450
circle 460
circle 470
circle 480
circle 490
circle 500
circle 510
circle 520
circle 530
circle 540
circle 550
circle 560
circle 570
circle 580
circle 590
circle 600
circle 610
circle 620
circle 630
circle 640
circle 650
circle 660
circle 670
circle 680
circle 690
circle 700
circle 710
circle 720
circle 730
circle 740
circle 750
circle 760



pensize 8
pencolor #555555
drawTo 0,400
fill on
fillcolor #98acf8
pencolor #98acf8
moveTo 0,400
circle 300
fillcolor #1c2b2d

circle 250
fillcolor #a20a0a
circle 150


moveTo 740,0

fill on
fillcolor #98acf8
pencolor #98acf8
circle 300
fillcolor #1c2b2d
circle 250
fillcolor #a20a0a
circle 150





