clear
reset
pencolor #c70039
x=500
y=300

if 5>2

if 6>3

if 9>0
drawTo x,y
x=x+200
y=y-100

if 10<2
drawTo x,y
endif

fill on
fillcolor #1089ff
circle 150
endif

endif
fillcolor #83a95c
rect 250,170
endif
if true
fillcolor #e6b566
triangle 140,150
endif