clear 
reset

moveto 100,215
pencolor #682c0e
pensize 10
drawto 100,50
pencolor green
fill on
triangle 30,30
moveto 100,60
triangle 40,40
moveto 100,75
triangle 50,50
moveto 100,95
triangle 60,60
moveto 100,115
triangle 70,70
moveto 100,140
triangle 80,80
moveto 0,210
drawto 100,210
moveto 200,210
drawto 100,210
moveto 300,210
drawto 100,210
moveto 450,210
drawto 100,210
moveto 550,210
drawto 100,210
moveto 450,50
pencolor yellow
circle 50

moveTo 375,320

pencolor #682c0e
rect 740,200
moveto 250,120
pencolor #d35d6e